﻿[username:12-time:2017-10-23 20:30-content:tôi là lộc đẹp trai]
[username:14-time:2017-10-23 20:30-content:tôi là lộc đẹp trai]
[username:28-time:2017-10-23 20:30-content:tôi là lộc đẹp trai]
[username:30-time:2017-10-23 20:30-content:tôi là lộc đẹp trai]